INDEX VERSION 1.129+/Users/icfd/Desktop/boa_api/.metadata/.plugins/org.eclipse.jdt.core
3767115374.index
2634225966.index
4238018145.index
3670248649.index
521061135.index
1067258947.index
3735975305.index
2867016645.index
1753319412.index
1204330761.index
506999199.index
4036230714.index
2363563081.index
561100236.index
3131291862.index
1271342938.index
1969767409.index
1315525803.index
404199878.index
